{
  "courses": [
    {
      "id": "c003",
      "title": "Progress with Vue",
      "duration": 50,
      "logo": "https://upload.wikimedia.org/wikipedia/commons/thumb/9/95/Vue.js_Logo_2.svg/1184px-Vue.js_Logo_2.svg.png"
    },
    {
      "title": "NodeJS",
      "duration": 75,
      "logo": "https://static-00.iconduck.com/assets.00/node-js-icon-454x512-nztofx17.png",
      "id": "_xFstnn"
    },
    {
      "title": "Angular 101",
      "duration": 120,
      "logo": "https://upload.wikimedia.org/wikipedia/commons/thumb/c/cf/Angular_full_color_logo.svg/2048px-Angular_full_color_logo.svg.png",
      "id": "OwYWy_g"
    }
  ]
}